{
    "cv_0":{
        "accountant":0.0022490754,
        "architect":0.0007406647,
        "attorney":0.9228576574,
        "chiropractor":0.0003540191,
        "comedian":0.0005760719,
        "composer":0.0006694267,
        "dentist":0.0004213439,
        "dietitian":0.0002914606,
        "dj":0.0002524398,
        "filmmaker":0.0007025197,
        "interior_designer":0.000172923,
        "journalist":0.001678181,
        "model":0.0004898542,
        "nurse":0.0022382509,
        "painter":0.0004689649,
        "paralegal":0.0033109203,
        "pastor":0.0008134001,
        "personal_trainer":0.0004873589,
        "photographer":0.0013255546,
        "physician":0.0018374786,
        "poet":0.0008498877,
        "professor":0.0485232271,
        "psychologist":0.0014062887,
        "rapper":0.000200712,
        "software_engineer":0.0011441447,
        "surgeon":0.001916443,
        "teacher":0.0038745095,
        "yoga_teacher":0.0001472215,
        "predicted_job":"attorney"
    },
    "cv_1":{
        "accountant":0.0000675179,
        "architect":0.0001018467,
        "attorney":0.0007083919,
        "chiropractor":0.0000762979,
        "comedian":0.0000289849,
        "composer":0.0000585886,
        "dentist":0.0001659368,
        "dietitian":0.0021768561,
        "dj":0.0000223213,
        "filmmaker":0.0001184838,
        "interior_designer":0.0000636509,
        "journalist":0.0008021849,
        "model":0.0000623142,
        "nurse":0.0078462271,
        "painter":0.0001087878,
        "paralegal":0.0001642457,
        "pastor":0.0000787724,
        "personal_trainer":0.0000847424,
        "photographer":0.0000841778,
        "physician":0.040952379,
        "poet":0.0001410734,
        "professor":0.9414012394,
        "psychologist":0.0028196682,
        "rapper":0.0000131988,
        "software_engineer":0.0001352032,
        "surgeon":0.0010818688,
        "teacher":0.0005504281,
        "yoga_teacher":0.0000846117,
        "predicted_job":"professor"
    },
    "cv_2":{
        "accountant":0.007845967,
        "architect":0.0058131345,
        "attorney":0.0106374345,
        "chiropractor":0.0058614508,
        "comedian":0.0216208803,
        "composer":0.0115742095,
        "dentist":0.0060657418,
        "dietitian":0.0164162191,
        "dj":0.0066952304,
        "filmmaker":0.3585234968,
        "interior_designer":0.0071730584,
        "journalist":0.0292864552,
        "model":0.0357025374,
        "nurse":0.1201536666,
        "painter":0.0298673807,
        "paralegal":0.003416113,
        "pastor":0.0084343755,
        "personal_trainer":0.0056596384,
        "photographer":0.0386415883,
        "physician":0.0361146054,
        "poet":0.0292463577,
        "professor":0.0244486043,
        "psychologist":0.0379206848,
        "rapper":0.0071807267,
        "software_engineer":0.0045308329,
        "surgeon":0.018333896,
        "teacher":0.0645566213,
        "yoga_teacher":0.0482790927,
        "predicted_job":"filmmaker"
    },
    "cv_3":{
        "accountant":0.0012362522,
        "architect":0.00694789,
        "attorney":0.0039661743,
        "chiropractor":0.0016050721,
        "comedian":0.0005814598,
        "composer":0.0004836032,
        "dentist":0.0011054329,
        "dietitian":0.0016384037,
        "dj":0.0002988031,
        "filmmaker":0.0007800823,
        "interior_designer":0.0011670134,
        "journalist":0.0012045257,
        "model":0.0010556026,
        "nurse":0.2477743543,
        "painter":0.0016704969,
        "paralegal":0.001580575,
        "pastor":0.0012392659,
        "personal_trainer":0.0011848397,
        "photographer":0.0018278482,
        "physician":0.0070373549,
        "poet":0.0031813607,
        "professor":0.6111953627,
        "psychologist":0.0055529358,
        "rapper":0.0003836014,
        "software_engineer":0.0011850424,
        "surgeon":0.0008925215,
        "teacher":0.0899049295,
        "yoga_teacher":0.003319196,
        "predicted_job":"professor"
    },
    "cv_4":{
        "accountant":0.006588433,
        "architect":0.0055764985,
        "attorney":0.0096056029,
        "chiropractor":0.014343863,
        "comedian":0.0047599492,
        "composer":0.0103138215,
        "dentist":0.0060124232,
        "dietitian":0.0036552192,
        "dj":0.0038578962,
        "filmmaker":0.0084546537,
        "interior_designer":0.0025693307,
        "journalist":0.0103942387,
        "model":0.0086934051,
        "nurse":0.0328941596,
        "painter":0.0064988268,
        "paralegal":0.0023487515,
        "pastor":0.0049545576,
        "personal_trainer":0.0070701451,
        "photographer":0.0151824943,
        "physician":0.2224319587,
        "poet":0.0085384046,
        "professor":0.4610242314,
        "psychologist":0.027259374,
        "rapper":0.0051645557,
        "software_engineer":0.0106425247,
        "surgeon":0.0864349836,
        "teacher":0.0123881262,
        "yoga_teacher":0.0023415711,
        "predicted_job":"professor"
    },
    "cv_5":{
        "accountant":0.0133803081,
        "architect":0.055171226,
        "attorney":0.0364624575,
        "chiropractor":0.0070655397,
        "comedian":0.0332850724,
        "composer":0.0541809366,
        "dentist":0.0110801511,
        "dietitian":0.0102983486,
        "dj":0.0102046067,
        "filmmaker":0.0490856383,
        "interior_designer":0.0141651069,
        "journalist":0.0442273525,
        "model":0.0222640392,
        "nurse":0.0165096297,
        "painter":0.0427645309,
        "paralegal":0.0054278152,
        "pastor":0.0120049345,
        "personal_trainer":0.0052204065,
        "photographer":0.243342989,
        "physician":0.026912392,
        "poet":0.0506596165,
        "professor":0.0562138572,
        "psychologist":0.0316559518,
        "rapper":0.0139428761,
        "software_engineer":0.0116446979,
        "surgeon":0.0165777555,
        "teacher":0.1014832307,
        "yoga_teacher":0.0047685328,
        "predicted_job":"photographer"
    },
    "cv_6":{
        "accountant":0.0001587163,
        "architect":0.000901183,
        "attorney":0.0003747021,
        "chiropractor":0.0000534245,
        "comedian":0.000124215,
        "composer":0.0001833507,
        "dentist":0.0000925909,
        "dietitian":0.0000783954,
        "dj":0.0000784214,
        "filmmaker":0.0001631289,
        "interior_designer":0.0000531024,
        "journalist":0.0003555154,
        "model":0.0004467913,
        "nurse":0.0000750203,
        "painter":0.0002396359,
        "paralegal":0.000065541,
        "pastor":0.0001053239,
        "personal_trainer":0.000041086,
        "photographer":0.000569291,
        "physician":0.0004367617,
        "poet":0.0001904594,
        "professor":0.993120977,
        "psychologist":0.0009306501,
        "rapper":0.0000767559,
        "software_engineer":0.0003159989,
        "surgeon":0.0003431322,
        "teacher":0.000390574,
        "yoga_teacher":0.0000352557,
        "predicted_job":"professor"
    },
    "cv_7":{
        "accountant":0.0000132405,
        "architect":0.000051323,
        "attorney":0.0001764329,
        "chiropractor":0.000019509,
        "comedian":0.0000202745,
        "composer":0.0000127946,
        "dentist":0.000068196,
        "dietitian":0.0000116138,
        "dj":0.0000086879,
        "filmmaker":0.0000177118,
        "interior_designer":0.0000077952,
        "journalist":0.0001315642,
        "model":0.0000043926,
        "nurse":0.0000132779,
        "painter":0.0000189847,
        "paralegal":0.00000572,
        "pastor":0.0000187746,
        "personal_trainer":0.0000047817,
        "photographer":0.0000743404,
        "physician":0.0002641125,
        "poet":0.000070159,
        "professor":0.9980937087,
        "psychologist":0.000634412,
        "rapper":0.0000103001,
        "software_engineer":0.0000162158,
        "surgeon":0.0001754946,
        "teacher":0.0000521599,
        "yoga_teacher":0.000004022,
        "predicted_job":"professor"
    },
    "cv_8":{
        "accountant":0.0015536077,
        "architect":0.0062825976,
        "attorney":0.003163064,
        "chiropractor":0.0009181893,
        "comedian":0.0008216249,
        "composer":0.0009226695,
        "dentist":0.0024032493,
        "dietitian":0.00172485,
        "dj":0.0004138119,
        "filmmaker":0.0008451371,
        "interior_designer":0.000405846,
        "journalist":0.0016134017,
        "model":0.000813906,
        "nurse":0.003416473,
        "painter":0.0010699511,
        "paralegal":0.0007692492,
        "pastor":0.001046228,
        "personal_trainer":0.0026370445,
        "photographer":0.0030919895,
        "physician":0.0173918327,
        "poet":0.0019224519,
        "professor":0.3124515369,
        "psychologist":0.01495089,
        "rapper":0.0005180038,
        "software_engineer":0.0016190618,
        "surgeon":0.002576483,
        "teacher":0.6132082637,
        "yoga_teacher":0.0014485861,
        "predicted_job":"teacher"
    },
    "cv_9":{
        "accountant":0.000201589,
        "architect":0.0005102495,
        "attorney":0.1927504888,
        "chiropractor":0.0001048774,
        "comedian":0.0000930232,
        "composer":0.0001285492,
        "dentist":0.0000905645,
        "dietitian":0.0000348785,
        "dj":0.0000473635,
        "filmmaker":0.0000859749,
        "interior_designer":0.0000587843,
        "journalist":0.0004329121,
        "model":0.0000818192,
        "nurse":0.0000613411,
        "painter":0.0000947114,
        "paralegal":0.0017861009,
        "pastor":0.0001193917,
        "personal_trainer":0.0000456133,
        "photographer":0.0002545243,
        "physician":0.0005498952,
        "poet":0.0000862371,
        "professor":0.800650014,
        "psychologist":0.0003317149,
        "rapper":0.000055687,
        "software_engineer":0.000449231,
        "surgeon":0.0005540122,
        "teacher":0.0003174336,
        "yoga_teacher":0.0000230182,
        "predicted_job":"professor"
    },
    "cv_10":{
        "accountant":0.0113361187,
        "architect":0.0097612262,
        "attorney":0.0414416405,
        "chiropractor":0.0098972744,
        "comedian":0.0046479715,
        "composer":0.003280441,
        "dentist":0.0065345467,
        "dietitian":0.0144658842,
        "dj":0.0034790299,
        "filmmaker":0.0081816209,
        "interior_designer":0.0042407347,
        "journalist":0.0533321144,
        "model":0.0138252189,
        "nurse":0.0792487127,
        "painter":0.0167585909,
        "paralegal":0.0039677995,
        "pastor":0.0231934865,
        "personal_trainer":0.0082423684,
        "photographer":0.0261626391,
        "physician":0.0226687129,
        "poet":0.0206479385,
        "professor":0.0274280917,
        "psychologist":0.1373682727,
        "rapper":0.0020113538,
        "software_engineer":0.0104841445,
        "surgeon":0.0087336378,
        "teacher":0.1468771812,
        "yoga_teacher":0.2817832482,
        "predicted_job":"yoga_teacher"
    },
    "cv_11":{
        "accountant":0.0030204518,
        "architect":0.003409202,
        "attorney":0.0037631862,
        "chiropractor":0.1099295243,
        "comedian":0.0033440985,
        "composer":0.0030827718,
        "dentist":0.3228415674,
        "dietitian":0.0014042267,
        "dj":0.002937701,
        "filmmaker":0.0046822163,
        "interior_designer":0.0011668055,
        "journalist":0.0044548205,
        "model":0.0047885616,
        "nurse":0.0019735843,
        "painter":0.0053286011,
        "paralegal":0.0007166098,
        "pastor":0.0039350384,
        "personal_trainer":0.0024391051,
        "photographer":0.0066348422,
        "physician":0.3948157077,
        "poet":0.0030965142,
        "professor":0.0019537979,
        "psychologist":0.0142453658,
        "rapper":0.0034589469,
        "software_engineer":0.0026116457,
        "surgeon":0.0803880243,
        "teacher":0.0089815339,
        "yoga_teacher":0.000595549,
        "predicted_job":"physician"
    },
    "cv_12":{
        "accountant":0.0044504162,
        "architect":0.0048641167,
        "attorney":0.005843968,
        "chiropractor":0.0145120231,
        "comedian":0.0012079593,
        "composer":0.0028889586,
        "dentist":0.0108161961,
        "dietitian":0.0018632418,
        "dj":0.0012896907,
        "filmmaker":0.0017381793,
        "interior_designer":0.0008494064,
        "journalist":0.0016436727,
        "model":0.0012083127,
        "nurse":0.0094737937,
        "painter":0.0017915226,
        "paralegal":0.0006358226,
        "pastor":0.0025045186,
        "personal_trainer":0.0012953159,
        "photographer":0.0044448349,
        "physician":0.0747772464,
        "poet":0.0017502141,
        "professor":0.430708397,
        "psychologist":0.0239687167,
        "rapper":0.0014450652,
        "software_engineer":0.0038501479,
        "surgeon":0.3857052312,
        "teacher":0.0038088253,
        "yoga_teacher":0.0006642065,
        "predicted_job":"professor"
    },
    "cv_13":{
        "accountant":0.0003274527,
        "architect":0.0012048444,
        "attorney":0.0009188755,
        "chiropractor":0.0005676814,
        "comedian":0.0001381346,
        "composer":0.0001438399,
        "dentist":0.0015203488,
        "dietitian":0.0003100615,
        "dj":0.0001956487,
        "filmmaker":0.0002363065,
        "interior_designer":0.0001484609,
        "journalist":0.0006652555,
        "model":0.0004550497,
        "nurse":0.0013341494,
        "painter":0.0001842278,
        "paralegal":0.0003670467,
        "pastor":0.0004424052,
        "personal_trainer":0.0001689768,
        "photographer":0.0002986609,
        "physician":0.0033307805,
        "poet":0.0003357281,
        "professor":0.9239856575,
        "psychologist":0.0452813497,
        "rapper":0.0002677831,
        "software_engineer":0.0021348298,
        "surgeon":0.0083593508,
        "teacher":0.0065760068,
        "yoga_teacher":0.000101087,
        "predicted_job":"professor"
    },
    "cv_14":{
        "accountant":0.0000611466,
        "architect":0.8861821449,
        "attorney":0.0001009436,
        "chiropractor":0.0000286121,
        "comedian":0.000032854,
        "composer":0.0000386577,
        "dentist":0.0000425603,
        "dietitian":0.0000243387,
        "dj":0.0000206655,
        "filmmaker":0.0000695356,
        "interior_designer":0.0001673609,
        "journalist":0.0002616526,
        "model":0.0000311368,
        "nurse":0.0000243893,
        "painter":0.0000794891,
        "paralegal":0.0000191505,
        "pastor":0.0000454575,
        "personal_trainer":0.0000150199,
        "photographer":0.000473748,
        "physician":0.0001724843,
        "poet":0.0000546945,
        "professor":0.1103210736,
        "psychologist":0.0010713752,
        "rapper":0.0000242737,
        "software_engineer":0.0002320043,
        "surgeon":0.0001113688,
        "teacher":0.0002821855,
        "yoga_teacher":0.0000116765,
        "predicted_job":"architect"
    },
    "cv_15":{
        "accountant":0.0004936556,
        "architect":0.0001539525,
        "attorney":0.0008772459,
        "chiropractor":0.0033144901,
        "comedian":0.0001841516,
        "composer":0.0001497691,
        "dentist":0.0062693042,
        "dietitian":0.0016140314,
        "dj":0.0001262787,
        "filmmaker":0.0002290885,
        "interior_designer":0.0003652947,
        "journalist":0.0010513914,
        "model":0.0007476892,
        "nurse":0.0037907376,
        "painter":0.0002258827,
        "paralegal":0.0004479668,
        "pastor":0.0001958824,
        "personal_trainer":0.0003441271,
        "photographer":0.0003472207,
        "physician":0.9579707049,
        "poet":0.0002954641,
        "professor":0.0087395635,
        "psychologist":0.0068971285,
        "rapper":0.0000989582,
        "software_engineer":0.0004928866,
        "surgeon":0.0033526439,
        "teacher":0.0009522346,
        "yoga_teacher":0.0002722554,
        "predicted_job":"physician"
    },
    "cv_16":{
        "accountant":0.003127688,
        "architect":0.003463071,
        "attorney":0.0018749327,
        "chiropractor":0.0019891006,
        "comedian":0.0007724266,
        "composer":0.0013815235,
        "dentist":0.000878619,
        "dietitian":0.0032012688,
        "dj":0.0006799206,
        "filmmaker":0.0034045014,
        "interior_designer":0.0024601105,
        "journalist":0.0036190248,
        "model":0.0057258441,
        "nurse":0.0177691592,
        "painter":0.0124214623,
        "paralegal":0.0018225321,
        "pastor":0.0028679393,
        "personal_trainer":0.0074172463,
        "photographer":0.0063299597,
        "physician":0.0054554745,
        "poet":0.0126661748,
        "professor":0.013129504,
        "psychologist":0.0126951491,
        "rapper":0.0005676902,
        "software_engineer":0.0008319931,
        "surgeon":0.0007999746,
        "teacher":0.5557245333,
        "yoga_teacher":0.3169231759,
        "predicted_job":"teacher"
    },
    "cv_17":{
        "accountant":0.0019112424,
        "architect":0.0052121935,
        "attorney":0.0101876252,
        "chiropractor":0.0011378474,
        "comedian":0.0014007018,
        "composer":0.0022981746,
        "dentist":0.0010923713,
        "dietitian":0.0003687011,
        "dj":0.0007889786,
        "filmmaker":0.002514144,
        "interior_designer":0.0003958794,
        "journalist":0.0057814329,
        "model":0.0019101978,
        "nurse":0.003717883,
        "painter":0.003192276,
        "paralegal":0.0012486238,
        "pastor":0.0018742502,
        "personal_trainer":0.00060476,
        "photographer":0.0033218885,
        "physician":0.0231228896,
        "poet":0.0018308006,
        "professor":0.0238922213,
        "psychologist":0.0034457701,
        "rapper":0.0013498578,
        "software_engineer":0.0038592715,
        "surgeon":0.8902116828,
        "teacher":0.0031359162,
        "yoga_teacher":0.0001924185,
        "predicted_job":"surgeon"
    },
    "cv_18":{
        "accountant":0.018276078,
        "architect":0.0315071299,
        "attorney":0.0475052019,
        "chiropractor":0.0424810126,
        "comedian":0.0132894975,
        "composer":0.0204218956,
        "dentist":0.0346412767,
        "dietitian":0.0047752188,
        "dj":0.0137283397,
        "filmmaker":0.0205652714,
        "interior_designer":0.0047173434,
        "journalist":0.039200862,
        "model":0.0396935463,
        "nurse":0.0297138809,
        "painter":0.0228648899,
        "paralegal":0.0043800852,
        "pastor":0.0105760796,
        "personal_trainer":0.0054354152,
        "photographer":0.0244361597,
        "physician":0.1192729841,
        "poet":0.0225055468,
        "professor":0.1547158983,
        "psychologist":0.0356467843,
        "rapper":0.0163394609,
        "software_engineer":0.0152105202,
        "surgeon":0.170572228,
        "teacher":0.0336508379,
        "yoga_teacher":0.0038765551,
        "predicted_job":"surgeon"
    },
    "cv_19":{
        "accountant":0.0003379203,
        "architect":0.0002859709,
        "attorney":0.0012771709,
        "chiropractor":0.0016514417,
        "comedian":0.0003233206,
        "composer":0.0004062193,
        "dentist":0.0218954582,
        "dietitian":0.0007484677,
        "dj":0.0002355918,
        "filmmaker":0.0005982458,
        "interior_designer":0.0001667028,
        "journalist":0.0002354681,
        "model":0.0003184321,
        "nurse":0.0018980087,
        "painter":0.0009636748,
        "paralegal":0.0001684858,
        "pastor":0.0002837759,
        "personal_trainer":0.0001744826,
        "photographer":0.000665219,
        "physician":0.6092901016,
        "poet":0.0003993045,
        "professor":0.0098779055,
        "psychologist":0.0094065094,
        "rapper":0.0004300568,
        "software_engineer":0.0002472649,
        "surgeon":0.3370190266,
        "teacher":0.0005635116,
        "yoga_teacher":0.0001322621,
        "predicted_job":"physician"
    },
    "cv_20":{
        "accountant":0.0077181192,
        "architect":0.0075414124,
        "attorney":0.0324658948,
        "chiropractor":0.0026332618,
        "comedian":0.0422981791,
        "composer":0.00433365,
        "dentist":0.0068615787,
        "dietitian":0.0043536617,
        "dj":0.0054395259,
        "filmmaker":0.011299571,
        "interior_designer":0.0036208061,
        "journalist":0.4683248098,
        "model":0.0380977694,
        "nurse":0.0249866572,
        "painter":0.008931823,
        "paralegal":0.0024248678,
        "pastor":0.0100164201,
        "personal_trainer":0.0034985228,
        "photographer":0.0422025158,
        "physician":0.0158018913,
        "poet":0.0460703435,
        "professor":0.0675503033,
        "psychologist":0.0194267054,
        "rapper":0.0118929154,
        "software_engineer":0.0062395047,
        "surgeon":0.0055704846,
        "teacher":0.0975187647,
        "yoga_teacher":0.0028800405,
        "predicted_job":"journalist"
    },
    "cv_21":{
        "accountant":0.0146954219,
        "architect":0.0114902396,
        "attorney":0.1605903116,
        "chiropractor":0.0062975738,
        "comedian":0.0199814345,
        "composer":0.0116005085,
        "dentist":0.0104266759,
        "dietitian":0.0020706975,
        "dj":0.0130109149,
        "filmmaker":0.0357410194,
        "interior_designer":0.0029682522,
        "journalist":0.1725460221,
        "model":0.1011146781,
        "nurse":0.0112278473,
        "painter":0.0164400168,
        "paralegal":0.0034339256,
        "pastor":0.0258721702,
        "personal_trainer":0.0033732052,
        "photographer":0.0499130629,
        "physician":0.0114226432,
        "poet":0.026573094,
        "professor":0.1445543633,
        "psychologist":0.0433122867,
        "rapper":0.0168965291,
        "software_engineer":0.0184726547,
        "surgeon":0.0412905282,
        "teacher":0.0212627712,
        "yoga_teacher":0.0034211513,
        "predicted_job":"journalist"
    },
    "cv_22":{
        "accountant":0.0011166611,
        "architect":0.058317837,
        "attorney":0.8696153678,
        "chiropractor":0.0000962634,
        "comedian":0.0001440405,
        "composer":0.002089466,
        "dentist":0.0001296431,
        "dietitian":0.000229164,
        "dj":0.0001968276,
        "filmmaker":0.0011154381,
        "interior_designer":0.0005114987,
        "journalist":0.0002452407,
        "model":0.0001469735,
        "nurse":0.0000879162,
        "painter":0.0010110763,
        "paralegal":0.0337070546,
        "pastor":0.0001059739,
        "personal_trainer":0.0002256641,
        "photographer":0.0092131303,
        "physician":0.0001348074,
        "poet":0.0003109599,
        "professor":0.0084307838,
        "psychologist":0.0021531302,
        "rapper":0.0001204483,
        "software_engineer":0.010132214,
        "surgeon":0.0001162962,
        "teacher":0.0002448916,
        "yoga_teacher":0.0000512318,
        "predicted_job":"attorney"
    },
    "cv_23":{
        "accountant":0.000057658,
        "architect":0.0000519528,
        "attorney":0.0000442571,
        "chiropractor":0.0000082444,
        "comedian":0.0000066647,
        "composer":0.0000084981,
        "dentist":0.000011965,
        "dietitian":0.0000551951,
        "dj":0.0000048342,
        "filmmaker":0.0000211651,
        "interior_designer":0.0000189553,
        "journalist":0.0000499811,
        "model":0.0000354059,
        "nurse":0.0002183784,
        "painter":0.000018858,
        "paralegal":0.0000390614,
        "pastor":0.0000397834,
        "personal_trainer":0.0000166158,
        "photographer":0.0000309368,
        "physician":0.0001836086,
        "poet":0.0000442528,
        "professor":0.974964151,
        "psychologist":0.0238326725,
        "rapper":0.0000032447,
        "software_engineer":0.000072278,
        "surgeon":0.0000131218,
        "teacher":0.0001381732,
        "yoga_teacher":0.0000100871,
        "predicted_job":"professor"
    },
    "cv_24":{
        "accountant":0.0030774691,
        "architect":0.0065013949,
        "attorney":0.0159744243,
        "chiropractor":0.0010040667,
        "comedian":0.0007970621,
        "composer":0.0018513586,
        "dentist":0.0023862195,
        "dietitian":0.0030540581,
        "dj":0.0008669679,
        "filmmaker":0.0049607887,
        "interior_designer":0.0013232401,
        "journalist":0.0255294207,
        "model":0.0027170744,
        "nurse":0.0067795838,
        "painter":0.0037298423,
        "paralegal":0.0029163038,
        "pastor":0.0037176052,
        "personal_trainer":0.0007047662,
        "photographer":0.0043365557,
        "physician":0.0129670158,
        "poet":0.0196288944,
        "professor":0.8292911126,
        "psychologist":0.0173070519,
        "rapper":0.000728735,
        "software_engineer":0.0018652356,
        "surgeon":0.0048667618,
        "teacher":0.0202354799,
        "yoga_teacher":0.000881511,
        "predicted_job":"professor"
    },
    "cv_25":{
        "accountant":0.0037971261,
        "architect":0.0093702882,
        "attorney":0.0119141606,
        "chiropractor":0.0021049821,
        "comedian":0.0013906464,
        "composer":0.0156793858,
        "dentist":0.0020361115,
        "dietitian":0.0048671356,
        "dj":0.0009806169,
        "filmmaker":0.0098875345,
        "interior_designer":0.0028396674,
        "journalist":0.0293645266,
        "model":0.0051200858,
        "nurse":0.0091557625,
        "painter":0.0426881562,
        "paralegal":0.0042182111,
        "pastor":0.0019594341,
        "personal_trainer":0.0014434648,
        "photographer":0.0128602015,
        "physician":0.0084441882,
        "poet":0.013708087,
        "professor":0.7012079504,
        "psychologist":0.0815178894,
        "rapper":0.0009777888,
        "software_engineer":0.0021889542,
        "surgeon":0.0029979501,
        "teacher":0.0151726193,
        "yoga_teacher":0.0021070747,
        "predicted_job":"professor"
    },
    "cv_26":{
        "accountant":0.0020151461,
        "architect":0.0019804324,
        "attorney":0.0071316653,
        "chiropractor":0.0376932929,
        "comedian":0.0010307939,
        "composer":0.0011167991,
        "dentist":0.0177507636,
        "dietitian":0.0217360041,
        "dj":0.0006716656,
        "filmmaker":0.0011872122,
        "interior_designer":0.0045651062,
        "journalist":0.0022320013,
        "model":0.0056204231,
        "nurse":0.6314817564,
        "painter":0.0022505884,
        "paralegal":0.0018937534,
        "pastor":0.0018068606,
        "personal_trainer":0.0025963596,
        "photographer":0.0024419022,
        "physician":0.1600961186,
        "poet":0.0020500658,
        "professor":0.0060686699,
        "psychologist":0.0286012814,
        "rapper":0.0007319314,
        "software_engineer":0.0008935901,
        "surgeon":0.0419506057,
        "teacher":0.0067127305,
        "yoga_teacher":0.0056924801,
        "predicted_job":"nurse"
    },
    "cv_27":{
        "accountant":0.0001170439,
        "architect":0.0010591687,
        "attorney":0.0020192048,
        "chiropractor":0.0000567324,
        "comedian":0.0000849944,
        "composer":0.0002500101,
        "dentist":0.000155173,
        "dietitian":0.0000939199,
        "dj":0.0000847159,
        "filmmaker":0.0006325211,
        "interior_designer":0.0000576717,
        "journalist":0.0038501201,
        "model":0.0001093925,
        "nurse":0.0000612706,
        "painter":0.0003138001,
        "paralegal":0.0000746743,
        "pastor":0.000365318,
        "personal_trainer":0.0000483071,
        "photographer":0.0029003482,
        "physician":0.0002540979,
        "poet":0.0004369513,
        "professor":0.9803474514,
        "psychologist":0.0024309829,
        "rapper":0.0000809945,
        "software_engineer":0.0002653167,
        "surgeon":0.0003242778,
        "teacher":0.0034881377,
        "yoga_teacher":0.0000374029,
        "predicted_job":"professor"
    },
    "cv_28":{
        "accountant":0.0005220203,
        "architect":0.8088774583,
        "attorney":0.0029942221,
        "chiropractor":0.000233141,
        "comedian":0.0003603439,
        "composer":0.0017686157,
        "dentist":0.0005213672,
        "dietitian":0.0002821682,
        "dj":0.0003412207,
        "filmmaker":0.0013207109,
        "interior_designer":0.0053157006,
        "journalist":0.0042875414,
        "model":0.0002173695,
        "nurse":0.0003005907,
        "painter":0.0046646749,
        "paralegal":0.0001638448,
        "pastor":0.0006461031,
        "personal_trainer":0.0002027992,
        "photographer":0.0067938251,
        "physician":0.0007946739,
        "poet":0.0022466488,
        "professor":0.1507464313,
        "psychologist":0.0017393314,
        "rapper":0.0002420813,
        "software_engineer":0.0017184402,
        "surgeon":0.0011184258,
        "teacher":0.0014919985,
        "yoga_teacher":0.0000882512,
        "predicted_job":"architect"
    },
    "cv_29":{
        "accountant":0.0015986621,
        "architect":0.0032025074,
        "attorney":0.0016289747,
        "chiropractor":0.0003398724,
        "comedian":0.0005819714,
        "composer":0.0015484241,
        "dentist":0.0009352519,
        "dietitian":0.001767148,
        "dj":0.0004966503,
        "filmmaker":0.0067106421,
        "interior_designer":0.0016235671,
        "journalist":0.0054241234,
        "model":0.0030798944,
        "nurse":0.0045887456,
        "painter":0.4457495484,
        "paralegal":0.0013986994,
        "pastor":0.0006029522,
        "personal_trainer":0.0008783605,
        "photographer":0.0353616196,
        "physician":0.0034346788,
        "poet":0.006903167,
        "professor":0.4480721391,
        "psychologist":0.0029717424,
        "rapper":0.0008704324,
        "software_engineer":0.0010864717,
        "surgeon":0.0012452823,
        "teacher":0.0172686164,
        "yoga_teacher":0.0006298551,
        "predicted_job":"professor"
    },
    "cv_30":{
        "accountant":0.0002737607,
        "architect":0.0002027818,
        "attorney":0.0002569193,
        "chiropractor":0.0000393157,
        "comedian":0.0000595904,
        "composer":0.0000632226,
        "dentist":0.0000621311,
        "dietitian":0.0000366633,
        "dj":0.0000398732,
        "filmmaker":0.000099673,
        "interior_designer":0.0000322869,
        "journalist":0.0000924745,
        "model":0.0001241334,
        "nurse":0.0000149814,
        "painter":0.0000615804,
        "paralegal":0.0000447341,
        "pastor":0.0000469608,
        "personal_trainer":0.0000296804,
        "photographer":0.9975339095,
        "physician":0.0000901193,
        "poet":0.0000451343,
        "professor":0.0003795751,
        "psychologist":0.0000639992,
        "rapper":0.000023958,
        "software_engineer":0.0000683447,
        "surgeon":0.0000833073,
        "teacher":0.0001125526,
        "yoga_teacher":0.000018337,
        "predicted_job":"photographer"
    },
    "cv_31":{
        "accountant":0.0004276697,
        "architect":0.0011394972,
        "attorney":0.0013556256,
        "chiropractor":0.0003845326,
        "comedian":0.0003576215,
        "composer":0.0004080846,
        "dentist":0.0010380277,
        "dietitian":0.0001841257,
        "dj":0.0002972806,
        "filmmaker":0.0010116555,
        "interior_designer":0.0005427345,
        "journalist":0.0029823206,
        "model":0.000598511,
        "nurse":0.0002352343,
        "painter":0.0082343609,
        "paralegal":0.0001629272,
        "pastor":0.0006982419,
        "personal_trainer":0.0002675081,
        "photographer":0.9711364248,
        "physician":0.0003268139,
        "poet":0.0013467898,
        "professor":0.0022362343,
        "psychologist":0.0003486126,
        "rapper":0.0002198771,
        "software_engineer":0.0008677028,
        "surgeon":0.0010983469,
        "teacher":0.0019233501,
        "yoga_teacher":0.0001698887,
        "predicted_job":"photographer"
    },
    "cv_32":{
        "accountant":0.0001488856,
        "architect":0.0000516738,
        "attorney":0.9940380675,
        "chiropractor":0.0000304624,
        "comedian":0.0000552712,
        "composer":0.0000445084,
        "dentist":0.0000487501,
        "dietitian":0.000014806,
        "dj":0.0000310013,
        "filmmaker":0.0000291882,
        "interior_designer":0.000018807,
        "journalist":0.0000392412,
        "model":0.0000298993,
        "nurse":0.0000302356,
        "painter":0.0000483894,
        "paralegal":0.0043462389,
        "pastor":0.0000311929,
        "personal_trainer":0.0000120228,
        "photographer":0.000025986,
        "physician":0.0000847824,
        "poet":0.0000162373,
        "professor":0.0002169649,
        "psychologist":0.0004259692,
        "rapper":0.0000300694,
        "software_engineer":0.0000264885,
        "surgeon":0.0000625966,
        "teacher":0.0000519047,
        "yoga_teacher":0.0000103597,
        "predicted_job":"attorney"
    },
    "cv_33":{
        "accountant":0.0022074482,
        "architect":0.0091632981,
        "attorney":0.0154625125,
        "chiropractor":0.0005072712,
        "comedian":0.0006411196,
        "composer":0.0004415656,
        "dentist":0.0005258013,
        "dietitian":0.000306094,
        "dj":0.0003420232,
        "filmmaker":0.0005443078,
        "interior_designer":0.0001590461,
        "journalist":0.0162834989,
        "model":0.000559363,
        "nurse":0.0002145376,
        "painter":0.0009732687,
        "paralegal":0.0004350859,
        "pastor":0.0015764505,
        "personal_trainer":0.0002311349,
        "photographer":0.001288151,
        "physician":0.0019693221,
        "poet":0.0006126769,
        "professor":0.87684071,
        "psychologist":0.0070484527,
        "rapper":0.0002893229,
        "software_engineer":0.0453825292,
        "surgeon":0.0014951557,
        "teacher":0.0143383575,
        "yoga_teacher":0.0001614946,
        "predicted_job":"professor"
    },
    "cv_34":{
        "accountant":0.0006092373,
        "architect":0.0007609995,
        "attorney":0.0011592453,
        "chiropractor":0.0001852888,
        "comedian":0.0004203801,
        "composer":0.0049114877,
        "dentist":0.0002483838,
        "dietitian":0.0001965742,
        "dj":0.0007325666,
        "filmmaker":0.018641787,
        "interior_designer":0.0009773252,
        "journalist":0.0010812358,
        "model":0.0009574726,
        "nurse":0.000667667,
        "painter":0.0070097595,
        "paralegal":0.0004658093,
        "pastor":0.0001932159,
        "personal_trainer":0.0002288527,
        "photographer":0.9525343668,
        "physician":0.0003507651,
        "poet":0.0018218735,
        "professor":0.0018647606,
        "psychologist":0.0005970019,
        "rapper":0.0004199579,
        "software_engineer":0.0003937645,
        "surgeon":0.0003029284,
        "teacher":0.0020678164,
        "yoga_teacher":0.0001994766,
        "predicted_job":"photographer"
    },
    "cv_35":{
        "accountant":0.0134997077,
        "architect":0.005784622,
        "attorney":0.8481867088,
        "chiropractor":0.0018012321,
        "comedian":0.0024182398,
        "composer":0.0019030091,
        "dentist":0.0017117771,
        "dietitian":0.0027182309,
        "dj":0.0017606744,
        "filmmaker":0.0049768752,
        "interior_designer":0.0019615226,
        "journalist":0.0109963054,
        "model":0.0033889975,
        "nurse":0.0028470565,
        "painter":0.0039285542,
        "paralegal":0.0058376241,
        "pastor":0.0021465451,
        "personal_trainer":0.0021281378,
        "photographer":0.0108815353,
        "physician":0.0124110382,
        "poet":0.0037380134,
        "professor":0.0040692427,
        "psychologist":0.0051642132,
        "rapper":0.0027561,
        "software_engineer":0.0062750041,
        "surgeon":0.0061635561,
        "teacher":0.0295671149,
        "yoga_teacher":0.0009783615,
        "predicted_job":"attorney"
    },
    "cv_36":{
        "accountant":0.0013426475,
        "architect":0.0004700298,
        "attorney":0.0025435761,
        "chiropractor":0.0076062224,
        "comedian":0.0003041991,
        "composer":0.0003007868,
        "dentist":0.0168499043,
        "dietitian":0.0040436123,
        "dj":0.0002372833,
        "filmmaker":0.0004307588,
        "interior_designer":0.0009949223,
        "journalist":0.0021741681,
        "model":0.0007270283,
        "nurse":0.1379895917,
        "painter":0.0010417183,
        "paralegal":0.0023680926,
        "pastor":0.0008227736,
        "personal_trainer":0.0007309182,
        "photographer":0.0028679889,
        "physician":0.5794845315,
        "poet":0.0006091186,
        "professor":0.1508728307,
        "psychologist":0.0508623495,
        "rapper":0.0002405958,
        "software_engineer":0.0007477899,
        "surgeon":0.0313693048,
        "teacher":0.001102012,
        "yoga_teacher":0.0008652449,
        "predicted_job":"physician"
    },
    "cv_37":{
        "accountant":0.0000327294,
        "architect":0.0000233044,
        "attorney":0.0001430616,
        "chiropractor":0.000019844,
        "comedian":0.0000124471,
        "composer":0.0000179772,
        "dentist":0.0000655339,
        "dietitian":0.0009480467,
        "dj":0.0000090788,
        "filmmaker":0.0000169204,
        "interior_designer":0.0000138607,
        "journalist":0.0000484735,
        "model":0.0000114618,
        "nurse":0.9897733431,
        "painter":0.0000396288,
        "paralegal":0.0000404449,
        "pastor":0.0000233636,
        "personal_trainer":0.0000208471,
        "photographer":0.000048725,
        "physician":0.0014042536,
        "poet":0.000019601,
        "professor":0.0023738747,
        "psychologist":0.0046201203,
        "rapper":0.0000101105,
        "software_engineer":0.0000311319,
        "surgeon":0.0001581099,
        "teacher":0.0000570021,
        "yoga_teacher":0.0000167042,
        "predicted_job":"nurse"
    },
    "cv_38":{
        "accountant":0.0004026271,
        "architect":0.0037451909,
        "attorney":0.0019250824,
        "chiropractor":0.0001897505,
        "comedian":0.000301717,
        "composer":0.0005214118,
        "dentist":0.0003843989,
        "dietitian":0.0002193984,
        "dj":0.0002248919,
        "filmmaker":0.0008030875,
        "interior_designer":0.0001881774,
        "journalist":0.0034629406,
        "model":0.0006530744,
        "nurse":0.0004494598,
        "painter":0.0012468146,
        "paralegal":0.0001437933,
        "pastor":0.0002789748,
        "personal_trainer":0.0001659056,
        "photographer":0.0032400952,
        "physician":0.0022616767,
        "poet":0.0006565573,
        "professor":0.9669977338,
        "psychologist":0.0018501438,
        "rapper":0.0003067919,
        "software_engineer":0.0012364865,
        "surgeon":0.0007605207,
        "teacher":0.0072434672,
        "yoga_teacher":0.0001398298,
        "predicted_job":"professor"
    },
    "cv_39":{
        "accountant":0.0003780524,
        "architect":0.0011903906,
        "attorney":0.0020167836,
        "chiropractor":0.0005070903,
        "comedian":0.0001400218,
        "composer":0.0002448981,
        "dentist":0.0016888261,
        "dietitian":0.0030114362,
        "dj":0.0001336032,
        "filmmaker":0.0004014254,
        "interior_designer":0.0001582964,
        "journalist":0.0007060465,
        "model":0.0001521443,
        "nurse":0.0006389825,
        "painter":0.0001254059,
        "paralegal":0.0002179033,
        "pastor":0.000149911,
        "personal_trainer":0.0001474246,
        "photographer":0.0004839056,
        "physician":0.0115564035,
        "poet":0.0002879128,
        "professor":0.9311345782,
        "psychologist":0.0327968357,
        "rapper":0.0001602955,
        "software_engineer":0.0008039099,
        "surgeon":0.0088038766,
        "teacher":0.0018360174,
        "yoga_teacher":0.0001276228,
        "predicted_job":"professor"
    },
    "cv_40":{
        "accountant":0.0000191318,
        "architect":0.0000191724,
        "attorney":0.0000515137,
        "chiropractor":0.0000185091,
        "comedian":0.0000086952,
        "composer":0.0000127637,
        "dentist":0.0000606065,
        "dietitian":0.0006385733,
        "dj":0.0000075863,
        "filmmaker":0.0000057686,
        "interior_designer":0.0000096783,
        "journalist":0.0000451158,
        "model":0.0000108214,
        "nurse":0.9928101098,
        "painter":0.0000107402,
        "paralegal":0.000034371,
        "pastor":0.0000136509,
        "personal_trainer":0.0000116729,
        "photographer":0.0000268135,
        "physician":0.0005018739,
        "poet":0.0000079769,
        "professor":0.0002091868,
        "psychologist":0.0053635941,
        "rapper":0.0000040752,
        "software_engineer":0.000025271,
        "surgeon":0.0000521593,
        "teacher":0.0000117337,
        "yoga_teacher":0.0000088349,
        "predicted_job":"nurse"
    },
    "cv_41":{
        "accountant":0.0000572973,
        "architect":0.000059773,
        "attorney":0.000635932,
        "chiropractor":0.0009989723,
        "comedian":0.0000359864,
        "composer":0.000080247,
        "dentist":0.0008169613,
        "dietitian":0.0001816468,
        "dj":0.0000402954,
        "filmmaker":0.0000786096,
        "interior_designer":0.0000194316,
        "journalist":0.00004969,
        "model":0.000019536,
        "nurse":0.0006730947,
        "painter":0.0001045929,
        "paralegal":0.0000727349,
        "pastor":0.0000854473,
        "personal_trainer":0.0000456238,
        "photographer":0.0000830714,
        "physician":0.1935145469,
        "poet":0.0000837128,
        "professor":0.0404275753,
        "psychologist":0.0006715337,
        "rapper":0.0000354617,
        "software_engineer":0.0001120718,
        "surgeon":0.7607492535,
        "teacher":0.0002391512,
        "yoga_teacher":0.0000277493,
        "predicted_job":"surgeon"
    },
    "cv_42":{
        "accountant":0.006581557,
        "architect":0.0057293443,
        "attorney":0.0401284663,
        "chiropractor":0.0026336201,
        "comedian":0.0037086307,
        "composer":0.004149862,
        "dentist":0.0058326519,
        "dietitian":0.005836647,
        "dj":0.0012302943,
        "filmmaker":0.005473825,
        "interior_designer":0.0041816112,
        "journalist":0.3267169141,
        "model":0.0114021392,
        "nurse":0.0190124135,
        "painter":0.0241162293,
        "paralegal":0.0048184725,
        "pastor":0.0055912352,
        "personal_trainer":0.001877521,
        "photographer":0.2690608049,
        "physician":0.0155891122,
        "poet":0.0226011722,
        "professor":0.1119962566,
        "psychologist":0.0448627653,
        "rapper":0.0010695455,
        "software_engineer":0.0040729756,
        "surgeon":0.0059906134,
        "teacher":0.0416054063,
        "yoga_teacher":0.0041299132,
        "predicted_job":"journalist"
    },
    "cv_43":{
        "accountant":0.0103508328,
        "architect":0.0060374622,
        "attorney":0.6082613458,
        "chiropractor":0.0009867053,
        "comedian":0.001089682,
        "composer":0.0019427421,
        "dentist":0.0021487907,
        "dietitian":0.0013528166,
        "dj":0.0006427982,
        "filmmaker":0.0053817853,
        "interior_designer":0.0005850418,
        "journalist":0.0811217405,
        "model":0.001096765,
        "nurse":0.0021008258,
        "painter":0.004605573,
        "paralegal":0.0036887224,
        "pastor":0.0057106284,
        "personal_trainer":0.0012323563,
        "photographer":0.0078006156,
        "physician":0.009298387,
        "poet":0.0072152876,
        "professor":0.1805050093,
        "psychologist":0.0287964501,
        "rapper":0.0007591357,
        "software_engineer":0.0050759815,
        "surgeon":0.0059713429,
        "teacher":0.0155052089,
        "yoga_teacher":0.0007359672,
        "predicted_job":"attorney"
    },
    "cv_44":{
        "accountant":0.0011634974,
        "architect":0.0010011696,
        "attorney":0.0022762223,
        "chiropractor":0.0006449931,
        "comedian":0.0008605038,
        "composer":0.0003393629,
        "dentist":0.0010549131,
        "dietitian":0.0021636926,
        "dj":0.0006523148,
        "filmmaker":0.0021522538,
        "interior_designer":0.0012280227,
        "journalist":0.0445670122,
        "model":0.0842195057,
        "nurse":0.0025931553,
        "painter":0.0008199635,
        "paralegal":0.0013852088,
        "pastor":0.0009780805,
        "personal_trainer":0.0012523289,
        "photographer":0.8372913363,
        "physician":0.0012137436,
        "poet":0.0012661367,
        "professor":0.0013489874,
        "psychologist":0.0010377109,
        "rapper":0.0002696712,
        "software_engineer":0.0029885832,
        "surgeon":0.0006013628,
        "teacher":0.0039436572,
        "yoga_teacher":0.0006866098,
        "predicted_job":"photographer"
    },
    "cv_45":{
        "accountant":0.0023738995,
        "architect":0.003720725,
        "attorney":0.0013728704,
        "chiropractor":0.000681724,
        "comedian":0.0007876364,
        "composer":0.0013792315,
        "dentist":0.0006937035,
        "dietitian":0.0017141888,
        "dj":0.000483218,
        "filmmaker":0.0042617761,
        "interior_designer":0.0019339051,
        "journalist":0.0161985046,
        "model":0.0038457531,
        "nurse":0.0068005323,
        "painter":0.0060842742,
        "paralegal":0.0017063317,
        "pastor":0.0005295448,
        "personal_trainer":0.0010775707,
        "photographer":0.9223712577,
        "physician":0.0013712824,
        "poet":0.0032925923,
        "professor":0.0055940494,
        "psychologist":0.002426234,
        "rapper":0.0003382764,
        "software_engineer":0.0027998422,
        "surgeon":0.0005275467,
        "teacher":0.0047993274,
        "yoga_teacher":0.0008342017,
        "predicted_job":"photographer"
    },
    "cv_46":{
        "accountant":0.0029319191,
        "architect":0.0039292528,
        "attorney":0.0050928414,
        "chiropractor":0.0023649005,
        "comedian":0.001854251,
        "composer":0.0017788923,
        "dentist":0.0021885086,
        "dietitian":0.0006479556,
        "dj":0.0011682064,
        "filmmaker":0.0017250601,
        "interior_designer":0.0006832066,
        "journalist":0.0051731612,
        "model":0.0021400391,
        "nurse":0.0031301604,
        "painter":0.0016635328,
        "paralegal":0.0007325161,
        "pastor":0.002110529,
        "personal_trainer":0.0012526517,
        "photographer":0.0056233799,
        "physician":0.0236042957,
        "poet":0.0032547568,
        "professor":0.0208702364,
        "psychologist":0.0040655096,
        "rapper":0.0010678783,
        "software_engineer":0.004084836,
        "surgeon":0.8918380354,
        "teacher":0.0044976039,
        "yoga_teacher":0.0005258833,
        "predicted_job":"surgeon"
    },
    "cv_47":{
        "accountant":0.0022376428,
        "architect":0.0031369042,
        "attorney":0.0037957559,
        "chiropractor":0.0003076033,
        "comedian":0.0004019017,
        "composer":0.0014348701,
        "dentist":0.0010485018,
        "dietitian":0.0003455566,
        "dj":0.000315412,
        "filmmaker":0.0017903667,
        "interior_designer":0.0003402046,
        "journalist":0.0025592017,
        "model":0.0003923287,
        "nurse":0.0008451504,
        "painter":0.0014012167,
        "paralegal":0.0002709025,
        "pastor":0.0010695065,
        "personal_trainer":0.0003461166,
        "photographer":0.0053493681,
        "physician":0.0049547454,
        "poet":0.0047198037,
        "professor":0.9358680477,
        "psychologist":0.0051538151,
        "rapper":0.0003256044,
        "software_engineer":0.0019102536,
        "surgeon":0.0083629813,
        "teacher":0.0111445646,
        "yoga_teacher":0.0001716733,
        "predicted_job":"professor"
    },
    "cv_48":{
        "accountant":0.0070378651,
        "architect":0.0114238515,
        "attorney":0.0281259198,
        "chiropractor":0.0017987881,
        "comedian":0.0220067976,
        "composer":0.7053835864,
        "dentist":0.0028929476,
        "dietitian":0.002300895,
        "dj":0.006451458,
        "filmmaker":0.0221514986,
        "interior_designer":0.0016978131,
        "journalist":0.0209720498,
        "model":0.0061304287,
        "nurse":0.0037583479,
        "painter":0.0280314637,
        "paralegal":0.0038762796,
        "pastor":0.0075344294,
        "personal_trainer":0.0025170082,
        "photographer":0.0218498375,
        "physician":0.0108807169,
        "poet":0.0155759312,
        "professor":0.0056818032,
        "psychologist":0.0085671222,
        "rapper":0.0055885632,
        "software_engineer":0.007956027,
        "surgeon":0.0081712383,
        "teacher":0.0289523575,
        "yoga_teacher":0.002684975,
        "predicted_job":"composer"
    },
    "cv_49":{
        "accountant":0.0093051121,
        "architect":0.0116441084,
        "attorney":0.0375016685,
        "chiropractor":0.0046992748,
        "comedian":0.0014649229,
        "composer":0.0016388077,
        "dentist":0.6097298735,
        "dietitian":0.0023851965,
        "dj":0.001207739,
        "filmmaker":0.0023140522,
        "interior_designer":0.0016095266,
        "journalist":0.0032812622,
        "model":0.0023962849,
        "nurse":0.0100923039,
        "painter":0.0036741198,
        "paralegal":0.0014826444,
        "pastor":0.0101127856,
        "personal_trainer":0.0042558874,
        "photographer":0.0120421088,
        "physician":0.0283200223,
        "poet":0.0029729661,
        "professor":0.1516932364,
        "psychologist":0.020780959,
        "rapper":0.0014471365,
        "software_engineer":0.0042377669,
        "surgeon":0.0376821796,
        "teacher":0.0188730896,
        "yoga_teacher":0.0031549645,
        "predicted_job":"dentist"
    }
}