,logisitic regression,Multinomial Naive Bayes,Random Forest,Linear Support Vector Machine
durée d'entrainement,156.407730002,0,231.95229135800002,1289.585464697
f1_score,0.6987927779871496,0,0.2637897334706283,0.6394146930044208
disparate impact moyen,2.018439988288738,0,1.1321003941714238,1.5699352764853143
