,Id,description,gender
7576,6065," She completed Anusara Teacher Training Levels 1 and 2 and is looking forward to additional philosophy immersions soon. Additional trainings include ""Yoga for Two: The Barnes Method"" Prenatal, ""Om Shree Om: Anusara Yoga for Kids"" and a Pilates Mat certificate from Physical Mind, NYC. She studies with Certified Anusara Instructors Ross Rayburn, Zhenja LaRosa, Bernadette Birney, Sianna Sherman, Todd Norian and John Friend.",F
176291,140944," She is the founder of a women’s group and leader of mother blessings. Recipient of the Writer’s Bureau runner up Writer of the Year 2010, she is a regular contributor to Modern Mum magazine, The Irish Examiner, JUNO and online to Rhythm of the Home and Wild Sister magazine. She is contributing editor at JUNO magazine.",F
91923,73589," The research objective of the lab is to provide theoretical and practical insight into how consumers perceive, interact with and access hospitality environments. The lab’s current research agenda is focused on evaluating the efficacy of restaurant menu, menu board, and wine label design tactics.",F
146553,117202," She has an incredible talent for capturing moments that need to be framed. Her flexibility to work with children, adults and still provide work that is outstanding is top-notch.",F
157668,126096," She is a graduate of SUNY Geneseo (B.A., cum laude, English), University of Rochester (M.A., English) and Albany Law School (J.D.), where she was a member of the Journal of Science and Technology and a recipient of the Gary M. Peck Environmental Memorial Prize. Prior to joining the Firm, she represented police and fire unions as an attorney with Grasso & Grasso, Schenectady and worked as a sole practitioner with an emphasis on real estate law. She has also worked as a court-appointed advocate for children in foster care. She represents parents in special education proceedings and in appeals of decisions of the Office of Persons with Developmental Disabilities. Jackie is admitted to the practice of law in New York and resides with her husband and three children in Canandaigua.",F
240662,192462, She was born in Southampton. She is listed on FreeOnes since 2018 and is currently ranked 23620th place. She currently has 8 gallery links in her own FreeOnes section.,F
184397,147397," The main focus of her research is on customer relationships, customer engagement and sustainability. Her work has appeared in Journal of Marketing, Journal of Service Research, International Journal of Research in Marketing, and Harvard Business Review.",F
182607,145967," She was born in Zabrze on June 21, 1984. She is listed on FreeOnes since 2007 and is currently ranked 3133th place. She currently has 106 gallery links and 13 videos in her own FreeOnes section.",F
50315,40309," Her work has been published and exhibited internationally. She was raised on Vancouver Island, in small-town Courtenay. Her career as a photographer was started by a yearlong work contract with Fabrica, the United COLORS of Benetton Research Centre, in 2008. She finished a residency at Fabrica in 2009 and became a part of ReGeneration2: Tomorrow’s Photographers Today. In 2012, Jen won the Pride Photo Award and Screenings 12 Award. She placed second in Photovisa’s 2012 “The Face” competition and was also nominated for the Joop Swart Masterclass and PDN 30. In 2013, the European Journalism Centre awarded Jen with a grant to shoot a personal project.",F
47184,37777," She graduated with honors from University Of Pennsylvania School Of Medicine in 2008. Having more than 8 years of diverse experiences, especially in NURSE PRACTITIONER, Melissa A Barzola affiliates with Memorial Hospital For Cancer And Allied Diseases, and cooperates with other doctors and specialists in medical group Memorial Anesthesiology Group. Call Melissa A Barzola on phone number (212) 639-2000 for more information and advises or to book an appointment.",F
215069,171869," She is founder, charter member, and President of Sons & Daughters of the United States Middle Passage. Dr. McDowell is a member of the Princeton chapter of the Daughters of the American Revolution. She currently researches diversity in the accounting profession and the effect of slavery on tax policy and reporting.",F
208825,166846," Dr. Mohapatra also is the director of the molecular tumor board at MWHC. In this position, she delivers personalized cancer therapy through the use of advanced genomic diagnostic testing.",F
101060,80861," Cade Rollins is the attorney she was competing with for the position. Vowing never to get involved with a co-worker, Sara’s been dubbed “The Ice Princess” by the guys in her office.",F
49567,39696," Dancing brilliantly among jap and Western kinds, fusing old chinese language background and modern American pop culture, she is without doubt one of the so much celebrated Asian-American poets writing at the present time.",F
165258,132096," She utilizes only the most advanced methods and dental equipment in the dental field. In addition to her competent dental staff, she offers an inviting approach that helps to ease all of her patients throughout their dental visit.",F
148095,118438," She is currently enrolled in UAMS' college of nursing and encourages all nurses to continue their education at UAMS. To learn more, please visit UAMS.edu/don",F
82062,65728," She has published in Shakespeare Bulletin, Southern Literary Journal, Journal of American Culture, Shakespeare and the Classroom, and Civil War Book Review.",F
77141,61806," Holman says ever since September 11th, she’s wanted to be a disaster response volunteer. She decided to sign up for the RNRN training after her own experience with evacuating during Hurricane Rita.",F
197753,158009," She holds a Ph.D. degree from Carnegie Mellon University. She has been leading research projects in relation to facility informatics and visualization, utilization of information models and advanced visualization technologies for improvement of AEC/FM processes, where she has over 50 publications. She is the director of Facilities Informatics and Visualization Lab at NYU and an active member of the AEC industry.",F
60025,48097," Laurent.Model: Gurmit KaurEditorial: GurmitMagazine: Vogue Italia, 1990Photographer: Steven MeiselStylist: Carlyne CerfHair & Makeup: Stéphane MaraisSource: Paul Rozario",F
248381,198638, She recieved her Ph.D. in Forensic Science from the University of Wolverhampton (United Kingdom) in 2015. She specializes in Forensic Anthropology and Forensic Taphonomy. Her research includes the investigation of postmortem molecular biology and its application in Criminal Justice.,F
87590,70171," Before joining HKU, she was a postdoctoral researcher in theTemporal Dynamics of Learning Center (TDLC) at the University of California, San Diego (UC San Diego) and worked with Prof. Gary Cottrell. She received the Ph.D. degree in Informatics (Cognitive Science) from the University of Edinburgh in 2006, and her Ph.D. advisor was Dr. Richard Shillcock. She received the M.Sc. degree in Computing Science from Simon Fraser University in 2002, and her M.Sc. advisor was Prof. Bob Hadley. She received the B.Sc. degree in Computer Science from National Taiwan University in 1999.",F
161520,129179," She has over thirty years of experience in higher education and has focused on teaching, experiential learning, and career development and counseling throughout her career. She teaches a variety of online and classroom courses in the Communication Studies Program. She also assists students in securing internship opportunities and enables students to analyze and learn from internship experiences. Before joining LaGuardia Community College, Professor Kolomechuk worked at Hofstra University and Long Island University. She has an M.S. in Education and Counseling from Hofstra University, an M.S.W. from Hunter College School of Social Work, and is a Licensed Master Social Worker.",F
46053,36874," She holds a Ph.D. from Luther Seminary. Prior to accepting the call to LWF, Mungure served as professor of theology and dean of students at Makumira University College in Tanzania.",F
143348,114638, She is also an Advanced Life Support Instructor and a BASP EMT. Lynne was involved with Galloway Mountain Rescue team for 20 years. She has been an active member of the Search and Rescue Dog Association (SARDA) Scotland since 1995. Lynne has been a BASP Trainer since 2006.,F
199469,159371," She is a leading international campaigner on female genital mutilation (FGM) and her passion is to empower women and girls. Leyla founded The Dahlia Project, the UK’s first specialist therapeutic service for FGM survivors, now part of the Manor Gardens Welfare Trust, and co-founded anti-FGM charity Daughters of Eve. She created the ground-breaking Face of Defiance project which is a series of photographic portraits and interviews with FGM survivors. As a writer, Leyla has been published in national media and she regularly appears in both print and broadcast as an expert commentator. Leyla was named Cosmopolitan Campaigner of the Year 2010 and she was included in the BBC 100 Women List in 2013, Woman’s Hour Power List 2014 and Debretts 500 as one of the UK’s most influential people.",F
141584,113210," Dr. Hull has served on the MBTG Steering Committee for the past 12 years, has trained several MBTG students in her lab, and has served on scores of PhD thesis committees for students in a variety of programs. She is committed to continuing to improve and enhance graduate training at UW-Madison.",F
207948,166176," She works with foreign fashion magazines, modeling agencies and on - demand projects. Before fashion projects her time was occupied with the creative manipulation of photographs and photomontages, which she still creates from time to time.",F
148386,118675," As part of her residency on Albert Drive, she has been collaborating with women from the Muslim, Sikh and Hindu communities who practice the tradition of head covering or veiling.",F
136978,109491," She filed a lawsuit on behalf of a Tulsa abortion clinic to prevent the enforcement of the new Oklahoma law. Yesterday, she argued in the U.S. District Court for the Northern District of Oklahoma that the law should be halted because it puts young girls' health at risk. She stated that a quick response was crucial because Reproductive Services was scheduled to perform abortions that day at noon. Anderson argued that because even a few days' delay can push a woman from the first trimester to the second, the law, which doesn't set up a time frame in which the court must act if the minor seeks judicial approval, puts girls' health at a greater risk.",F
256814,205374," She received her bachelor’s degree in biomolecular science from Central Connecticut State University. She then attended University of Bridgeport Physician Assistant Institute and obtained her master’s degree. During that time, she completed her graduate thesis on the health effects of nutritional disparities on pediatric patients. She has two years of experience working in pediatrics. Prior to that she spent three years working in urgent care. She is a member of the American Academy of Pediatrics. She has a special focus on breastfeeding support, childhood nutrition and obesity prevention, as well as teenage and young adult LGBTQ support. She is working towards completing the lactation consultant certification program.",F
120267,96194," Her story originally appeared in Peace Works, a publication of Peace Advocates Zamboanga or PAZ, the interreligious arm of the Archdiocese of Zamboanga.",F
239238,191323, Her current research focuses on cities in a climate of change with an emphasis on critical urban governance. She is the principal investigator for an Australian Research Council grant on ‘Enabling social innovation climate adaptation at the local scale’.,F
119320,95450," For her residency, Dr. Kuznetsova trained at Rush University Medical Center. Her clinical interests include robotic stereotactic radiosurgery (cyberknife). She accepts Humana HMO, Humana Bronze, and Humana Catastrophic, in addition to other insurance carriers. She is affiliated with Swedish Covenant Hospital. Dr. Kuznetsova has an open panel.",F
69505,55733," She has studied since 1978 with several Houston teachers such as Lex Gillan of the Yoga Institute and Robert Boustany of Pralaya Yoga. In 2006 she completed a year of study, culminating with an Instructor’s Certification at Boustany Hatha Yoga Studio, RYS. She understands firsthand the power of yoga and believes that traditional hatha yoga safely promotes health, wellbeing, flexibility, and strength. Breathing techniques encourage relaxation, stress reduction, and a more focused mind. Classes taught include Prenatal, Mom and Baby, Gentle and Restorative Yoga, and Corporate Yoga. Classes are held weekly at Joy Yoga Center, Schlumberger, and MD Anderson YMCA.",F
265394,212327," Originally from Louisville, KY, she holds a Ph.D. in sociology from the University at Albany, SUNY, and a Master of Arts and a Bachelor of Arts degree in Sociology from Western Kentucky University.",F
149627,119665, She has advised donors and non-profit organisations for over 15 years and has been involved with Home from Home in various capacities almost since its inception. She has seen the growth and development of the organisation first hand and is committed to playing a part in its continued growth and success.,F
235262,188130," As Academic Advisor for the OISE Student Success Centre from 2005 onward, Antoinette has had the opportunity to work closely with a team of 10 to 15 doctoral candidates to meet the academic and cultural needs of undergraduate and graduate students in education. Dr. Gagné is also involved in research with immigrant teachers and learners along with colleagues in a number of immigrant receiving countries including Scotland, England, Iceland, Norway, Sweden, Finland and Australia. She has also been a member of the Advisory Board for Teach in Ontario, a bridging program for internationally educated teachers in Ontario.",F
125788,100589," She practices in Washington, Missouri and has the professional credentials of DC (Doctor of Chiropractic). The NPI Number for Ms. Megan Kathleen Minner is 1003002486 and she holds a License No. 2007027755 (Missouri).",F
190463,152208," She is also the Upper School science department chair, biology teacher, Tae Kwon Do instructor and volleyball coach. Mrs. Bartsch began working in 1981 at Asheville Country Day School. Joanne's husband attended CDS in Pre-K and both of her children are graduates, Christan, who graduated in 2005 and Perry III, who graduated in 2008. Joanne was a Klingenstein Summer Fellow, and was an Access Excellence Fellow, and is a fourth degree black belt certified instructor in taekwondo. Joanne has received the Betty Lou Davis Award, The Don Scarborough Award, The Elliston Award, the Senior Prize, and The Melissa Ogden Award.",F
110079,88059," The focus of her work is the integration of the theory and practice of counselor, social justice, and contemplative education in service to personal, interpersonal, community, and institutional transformation in the 21st century. She is a member of Naropa’s Center for the Advancement of Contemplative Education (CACE) steering committee, and of the faculty Diversity and Inclusion Advisory Group.",F
59179,47442," She graduated with honors in 2002. Having more than 15 years of diverse experiences, especially in NURSE PRACTITIONER, Krista A Fennel affiliates with many hospitals including Baptist Health Paducah, Jackson Purchase Medical Center, Baptist Memorial Hospital Union City, Lourdes Hospital, and cooperates with other doctors and specialists in medical group Baptist Health Medical Group Inc. Call Krista A Fennel on phone number (270) 575-2180 for more information and advises or to book an appointment.",F
59069,47355," She graduated with honors in 1995. Having more than 21 years of diverse experiences, especially in NURSE PRACTITIONER, Dianna L Brown affiliates with many hospitals including Spectrum Health Gerber Memorial, Mercy Health Muskegon, Mercy Health Lakeshore Campus, and cooperates with other doctors and specialists in medical group Newaygo County General Hospital Association. Call Dianna L Brown on phone number (231) 924-7799 for more information and advises or to book an appointment.",F
66693,53491," Dr. Loeb completed her urology residency training at Johns Hopkins and subsequently received a Masters of Science in Comparative Effectiveness Research at NYU. She has a K07 grant from the National Cancer Institute to study active surveillance for prostate cancer. Dr. Loeb is an internationally recognized expert in prostate cancer with more than 225 peer-reviewed published articles and 8 book chapters. She is on the Editorial Board for the British Journal of Urology International, European Urology, Urology Practice and Reviews in Urology. Dr Loeb authored the chapter on ""Early Detection, Diagnosis, and Staging of Prostate Cancer"" for Campbell-Walsh Urology. Dr. Loeb also frequently gives international lectures on prostate cancer, and hosts the Men's Health Show on Sirius XM 81 satellite radio.",F
189312,151307," She was born on January 1, 1996. She is listed on FreeOnes since 2018 and is currently ranked 11052th place. She currently has 6 gallery links in her own FreeOnes section.",F
44274,35428," Since 2000, Ms. Podolak has taught the Mindful Eating Program. Her experience includes the treatment of obesity and its complications. Ms. Podolak is respected by her colleagues and her clients not only as a knowledgeable clinician, but also as a caring, supportive and empathetic counselor.",F
178685,142859," Her current research focuses on the dramaturgy of contemporary socially engaged theatre and performance practices, in particular performative interventions in public space. Sigrid is part of the UU research group [urban interfaces] and one of the core members of Platform-Scenography.",F
136002,108713," Allentown, PA 18106. She specializes in treating children and pregnant women, however sees a wide range of patients. To contact Dr. Zerdecki please call (610)841-2204 or visit www.completechirocenter.com.",F
56270,45105, Catherine is a partner in a leading firm of Chartered Accountants headquartered in London specialising in the provision of audit and advisory services to charities and educational institutions. She has always had an interest in education and spent a year teaching English as a foreign language after university. More recently she has been involved in the Tower Hamlets Reading Partner scheme. Catherine was appointed Chair of the Audit Committee in 2016.,F
212526,169820," Since then, she has worked in a number of clinical and research settings, throughout the Faculty of Medicine, Nursing and Health Sciences. Catriona has a strong interest in research, particularly in women’s and children’s health and its contribution to policy change and improved health outcomes for the community.",F
9289,7435," He also is medical director of the UCSF Neurological Surgery Extension at Queen of the Valley Medical Center in Napa. Yablon has extensive experience treating brain and spinal cord tumors and expertise in complex and minimally invasive spine surgery, in addition to trauma neurosurgery. His areas of interest include normal pressure hydrocephalus, intracranial hemorrhagic disorders, Cyberknife radiosurgery for brain and spinal tumors and syringomyelia.",M
45164,36154," Louis University. According the SLU web site, he has recently taught the classes “Christian Morality,” “Health Care Ethics,” and “Bioethical Controversies.”",M
182391,145799," After serving as staff photographer for Oh! Idaho magazine, he started a series of presentations based on his knowledge of Idaho and the West. People throughout the state have praised his presentations. He is a recipient of an Idaho Humanities Council grant to tour his Robert Limbert presentation. He holds a B.F.A. in photography from the Art Center College of Design in Los Angeles.",M
61751,49485," He specializes in the music of sub-Saharan Africa and his areas of interest and research include historical ethnomusicology, organology, and the relationship between musical practice and sociopolitical systems. His current research focuses on the royalist music institution of the Kingdom of Buganda, Uganda. An active member of the Society for Ethnomusicology, Kafumbe is the current member-at-large and treasurer of the Northeast Chapter (NECSEM) and in-coming chair of the African Music Section (AfMS). He is also serving on the Program Committees for this year’s SEM meeting in Austin, Texas and NECSEM meeting in Providence, Rhode Island.",M
244142,195233," He holds a Juris Doctorate from the University of the Pacific, McGeorge School of Law and a Bachelor’s Degree from San Diego State University. He is fluent in English, Spanish and he is doing his best to master Danish.",M
109767,87809," Broadly interested in questions of transnationalism, power and communication, his primary research interests include global news, social movements, international relations and Middle East politics. Youmans wrote a book, Unlikely Audience: Al Jazeera's Struggle in America (2017), about the Qatari news network's efforts to gain a share of the news market in the United States, 2006-2016. He has been quoted in Salon, Newsweek, Variety and The New York Times, and was a guest on CBC Radio, NPR, Headline News, and ARD. He wrote a regular column for the Gulf News, but has also been published in the Washington Post, Middle East Report, and Nieman Journalism Lab. His paper on CIA recruitment in Arab Detroit won the 2013 Best Paper award in the International Communication Section of the International Studies Association.",M
28353,22661," He is a specialist in minimal access surgery, particularly for the morbidly obese, and has done more than 2,000 gastric bypass and bariatric surgeries. Dr. Morton received his MD and Master’s in Public Health from Tulane University, where he completed his internship. He completed his residency at Swedish Medical Center in Seattle and fellowships at the University of North Carolina and University of Washington. He is Board Certified by the American Board of Surgery.",M
263928,211126," He lived in France for several years, then returned to Pune, where he continues his profession. He is from Loyola High School, Pashan, Pune, where ""education beyond text books"" was usually encouraged, and he volunteered to set Timetables for all periods of all secondary classes.",M
18907,15164," He shold leave the work of investigative journalism to pro journalists and instead focus on what Stewart does well, taht's, entertaining. Stewart recently has become quite agressive and confusing.",M
43202,34600," During the last 23 years Javan has developed the world’s most extensive range of iconic historic race car models in his signature scale of 1/8, all of which are individually handmade personally by Javan in his studio on the Lizard Peninsular in Cornwall, England.",M
220591,176295," In 1997, he obtained his Ph.D. in computational neuroscience from Boston University where he worked with Drs. Stephen Grossberg and Daniel Bullock. He then worked as a post-doctoral fellow with Dr. Steve Scott at Queen’s University, studying the neural mechanisms of motor control, and later with Dr. John Kalaska at the University of Montréal, studying the cortical mechanisms of planning and decision-making. In 2004 he joined the faculty of the University of Montréal where he has established a lab studying decision-making and movement planning using computational modeling, psychophysics, transcranial magnetic stimulation, and multi-electrode recording in awake, behaving monkeys.",M
267047,213649, He graduated from Rochester Institute of Technology with a BFA in Fine Art Studio. He is back in the region after living a few years in Texas and working for the Department of Defense as a visual information specialist.,M
7645,6120," Louis. He first visited England when he was ten years old and has loved it-and had the Tube map pretty much memorized-ever since! Teaching this course in 2011 will mark his 11th trip to Britain, including a two-year stay while conducting his dissertation research in the early 1990s. He looks forward to sharing his knowledge and experience with students from all the schools within the Midwestern consortium.",M
213772,170829," He practices in Fort Smith, Arkansas and has the professional credentials of PT. The NPI Number for Angelo Martinez is 1649560202 and he holds a License No. PT1988 (Arkansas).",M
180447,144246," Francis Xavier University. His research concerns development economics, economic history, and the economics of conflict and violence, which is the topic of this episode of Economics Detective Radio.",M
114907,91922," His debut body of work: “Vertical Horizon” focusing on the unmatched vertical growth of Hong Kong was first published by Asia One in 2012. Some of the images were an instant hit and went viral all over the world. His photos have been featured in major publications across the world such as The Guardian, National Geographic, Huffington Post, CNN, Wall Street Journal, El Pais, Le Figaro Magazine, Die Welt, Apple Daily and many more. In this exhibition he will bring so far unseen work as part of the new series. The third revised edition of ‘Vertical Horizon’ will be launched during this exhibition.",M
49866,39941," The researches span from aerospace application, where Prof. Violante is investigating the usage of commercial-off-the-shelf (COTS) components such as microprocessors, and FPGAs to build novel on-board computers for telemetry, command and control, and payload processing, to automotive applications where Prof. Violante is investigating the usage of COTS software components such as embedded hypervisors and model-based design techniques to build develop mixed-criticalities applications. His role in the MaMMoTH-UP project focuses mainly on reliability evaluation and hardening techniques.",M
231003,184683, He studied digital production and storytelling in addition to Middle Eastern Studies at the American University of Dubai. A TIME TO PRAY is his first short film.,M
261319,208991," Dr. Chinnappan Vangadasalam practices at Yishun Medical Centre in Yishun, Singapore. He completed MBBS from National University of Singapore, Singapore in 1980. He is a member of Singapore Medical Council. Some of the services provided by the doctor are: Skin Checks,General Illness,Health Checkup (General),Preventive Medicine and Vaccination/ Immunization etc.",M
136372,109007, He can often be found searching for his cat or climbing rocks in Kentucky. His work appears or is forthcoming in Modern Poetry Quarterly Review and Poetry Pacific.,M
151314,121010," He is a member of the FEd Executive Committee and conducts research in physics education that seeks to understand diversity issues in the physical sciences, retention and success in graduate education, and the culture of STEM and its connection to the recruitment of future practitioners.",M
15380,12345," He received a Ph.D. in media history from The University of Alabama. Before moving to Texas, he lived and taught in Seoul, South Korea. Butler also spent a decade as news director of Alabama Public Radio in Tuscaloosa, Ala., and owns a media consulting business specializing in journalism education. He has been a member of SPJ since 1997.",M
11342,9102," His research is focused on heat transfer and energy conversion, specifically the development and application of laser techniques to study and manipulate energy transport in solids and liquids. Applications include the development of new materials, energy conversion, thermal management, and furthering fundamental understanding of nanoscale transport phenomena.",M
814,629," His poetry has appeared in newspapers and magazines world-wide, (nearly 600 poems in 100 publications, as well as ezines and his three previous collections). He has won several awards, including the Victorian Anticancer Council Poetry Prize in 1999 and the Melbourne Poets' Prize in 1998. His other publications are Falling over Jogging, Stuttering Towards Love, (Walleah Press, 2000) and Mal (Sidewalk).",M
182530,145909," He is a maverick marketer who delivers scalable campaigns, embraces traditional modes of customer engagement, and possesses a remarkable cachet of mentorship, corporate governance, and brand building.",M
206687,165190," He has a degree in Studio Art from the University of Tennessee, and is a member of the American Plains Artists, and Western Associates Artists, and has exhibited in Oil Painters of America juried shows.",M
164869,131788," A Fulbright scholar, Dr. Tsadik obtained his PhD in 2002 from the Yale University History Department specializing in the areas of Iranian and Middle Eastern history as well as in history of the Jews under Islam. His research focuses on the modern history of Iran, Shi’ah Islam, and Iran’s religious minorities.",M
95326,76322," His research focuses on the history of special education in the United States. Portions of this article are adapted from his forthcoming book on the history of special education in Boston, to be published in the spring of 2000 by Gallaudet University Press.",M
207517,165848," Dr. Jayesh R Jadeja practices at J J's Dental Care in Naranpura Vistar, Ahmedabad. He completed BDS from Rajarajeswari Dental College Hospital in 2011. He is a member of Indian Dental Association. Service provided by the doctor is: Dental Implant Fixing.",M
234594,187591, He acknowledged no financial interest in the product or company mentioned herein. Dr. Khouri may be reached at (973) 972-2045; albert.khouri@rutgers.edu,M
87873,70398," Sinai School of Medicine. Dr. Morrison has received numerous awards for his work in geriatric and end-of-life care. Dr. Morrison is a graduate of the University of Chicago Medical School, and has been with Mt. Sinai since 1993.",M
128374,102646, Louis. He is also the Associate Chief Medical Information Officer for Laboratories at BJC Healthcare. Dr. Jackups completed his residency in Clinical Pathology and Transfusion Medicine at Washington University. He earned his MD and a PhD in Bioinformatics from the University of Illinois at Chicago. His research interests include clinical decision support and education in laboratory and transfusion medicine.,M
75629,60601," After graduating with a degree in economics, he turned his eye to design, tackling everything from lighting to furniture, creating wonderfully weird designs. Ocean Kitchen is both stunning and surprisingly functional and has the power to turn any boring kitchen into an oceanic wonder.",M
199939,159754," Dr. Tarun Pawar practices at Dr. Pawar's Dental Center in Mayur Vihar Ph-III, Delhi. He completed BDS from G B Pant Hospital / Moulana Azad Medical College, New Delhi in 2003. He is a member of Indian Dental Association. Some of the services provided by the doctor are: X- Ray ,Crowns and Bridges Fixing, Tooth Extraction,Dental Implant Fixing and OPG etc.",M
84788,67926," He provides dentistry in a small, friendly, caring office. “No Waiting”, Professional Care, “Doctor-Patient” relationship… Dental care and dentistry in a caring, friendly and professional manner.",M
134734,107717," There is a famous (and true) story from the early seventies about his receiving a white label (pre-release test pressing) of a new record by John Lennon and Yoko Ono. It was an exclusive. He reviewed it at length in Melody Maker. Side 1 had a normal enough format — five or six songs — but his attention was taken by side 2, which consisted of a 20-minute-long continuous tone — a pure sine wave. This was the kind of bold experimentation that one expected of John and Yoko, and Williams, clearly impressed, reviewed the piece favorably and at some length. It turned out to be a test tone — he didn’t know that it was common practice for cutting engineers to cut a pure tone on to test pressings in order to monitor things like turntable stability and vinyl quality.",M
64986,52111, He earned his medical degree from SUNY Stony Brook School of Dental Medicine in 1998. Dr. Rosenblat completed his residency at the Hospital of the University of Pennsylvania in 2002.,M
252286,201737," He has been a practicing Dentist for 7 years. He is a qualified BDS . He is currently practising at Sai Sanjeevani Dental Clinic in Andheri East, Mumbai. Don’t wait in a queue, book an instant appointment online with Dr. Ajay Jaiswar on Lybrate.com.",M
95156,76180," He is as adept at looking at the Glazers at Old Trafford as he is the demise of Chester City. His first book, published in 1998 ‘Football Business – Fair Game in the 90s’, was like any output by Conn thoroughly detailed. ‘Beautiful Game’ is a follow up of sorts, but is written with much more emphasis on the effect of the football revolution brought about by Sky and the Taylor Report and what impact that had on the ‘fans’. Like his efforts today, Conn looks at all levels be British football’s worst disaster or AFC Wimbledon. The book may be just over 5 years old but the many themes and issues are still so relevant today… must be due another update!",M
71205,57066," Yearning for the good old days when he was a choral director in Wales, Secombe organizes his Aussie students into a children's choir. Along the way, Secombe finds lasting happiness with down-to-earth local woman. - Written by",M
117889,94313," He has more than six years of experience mainly in polyglot development and high performance applications in finances, governments, social media and e-commerce. Otavio’s core knowledge and experience is in Java SE, Java EE, Spring, and Google App Engine (GAE). He also works with several databases both SQL and NoSQL such as Cassandra, MongoDB, Redis, Riak, Neo4J, ElasticSearch and beyond.",M
266276,213042," Dr. Estwanik graduated from Wake Forest School of Medicine in 1973 and has been in practice for 44 years. He completed a residency at Bowman Gray School of Medicine. Dr. Estwanik also specializes in Sports Medicine. He currently practices at Metrolina Orthopaedic & Sports Medicine and is affiliated with Carolinas Medical Center Mercy. Dr. Estwanik accepts multiple insurance plans including Aetna, Medicare and Cigna. Dr. Estwanik also practices at Metrolina Orthpdc/Sprts Medcn. in Cornelius, NC. In addition to English, Dr. Estwanik's practice supports this language: Spanish.",M
17659,14156," Rob's practice focuses on a variety of corporate transactions, including mergers and acquisitions, corporate financings and general corporate and business matters across a broad range of industries. Rob has represented both lenders and borrowers in debt financings, including syndicated credit facilities, acquisition financings, cash flow and asset-based financings and mezzanine financings. In addition, he has represented clients on a variety of environmental issues, including environmental due diligence and underground storage tank compliance. Rob began his legal career in New Bern, NC, where he practiced environmental law, drafted construction contracts, and represented clients in general civil litigation.",M
24439,19515," His research evaluates and modifies biopolymers and cotton fibers to advance the quality of cotton and its functionalities. Joining Texas Tech in 1999, Abidi has received more than $3.8 million in external research grants and secured one patent and four invention disclosures. He received his bachelor’s and master’s degrees in Morocco and earned his Ph.D. from the University of Montpellier II in France.",M
231262,184880," He has been working with the Company for the last five years. Prior to joining HBL Asset Management, he was working with a large brokerage house, looking after the Financial Reporting and Budgeting & Planning functions of the Company. He completed his training with A.F.Ferguson & Co Chartered Accountants; a member firm of Pricewaterhouse Coopers. During his association with PwC he worked in the Assurance and Business Advisory Services of the firm performing audits of several Companies in various sectors including, mutual funds, banks, DFIs, oil and gas, steel, textile companies of Pakistan.",M
201715,161177," Following three years at a University Police Department, Baggett began his eleven year tenure at the Justice and Safety Center at EKU. In this capacity, Baggett worked on and subsequently led several projects and programs from the United States Department of Justice and the United States Department of Homeland Security. Baggett's research interests include homeland security technology, distance learning, training effectiveness, and critical infrastructure protection.",M
237145,189640," In Minnesota, Brian served as the Director of Securities at the Minnesota Department of Commerce. He was responsible for overseeing registration of securities offerings, and registration, enforcement and examination activities involving investment advisers and broker dealers doing business in Minnesota. In Washington, Brian investigated civil rights and civil fraud claims with the U.S. Department of Justice Civil Rights Division and Civil Division, Consumer Protection Branch.",M
174967,139870," Dr. Annamanens graduated from New York Medical College in 2004 and has been in practice for 24 years. He currently practices at Fern Creek General Surgery and is affiliated with Cape Fear Valley Medical Center. Dr. Annamanens accepts multiple insurance plans including Aetna, Medicare and Humana.",M
22922,18320," Mary's College of Maryland. Originally from Westminster, Maryland, he has exhibited work at the Gallery Gabrichidze in Brussels, Belgium, and he assisted photographers throughout D.C. and NYC. Patrick currently manages Ken Allen Studios, a custom fine art printing studio in Williamsburg, Brooklyn. He works one-on-one with photographers and artists to produce pigment ink prints, while keeping up with the latest developments in photography and digital printing. He is enjoying being on the ground and photographing New York City at street level while planning future aerial photography series. View more of his work on Tumblr.",M
188970,151039," He received a B.S. with honors from the California Institute of Technology (Caltech) in 2003, and a Ph.D. in computer science from the University of California, Berkeley, in 2009. Prior to joining TTIC, he was a postdoctoral scholar in the Department of Electrical Engineering at Caltech.",M
