,logisitic regression,Multinomial Naive Bayes,Random Forest,Linear Support Vector Machine
durée d'entrainement,183.802625066,0.6567064090000088,8.159321892000008,34.471732970999966
f1_score,0.7279625670077278,0.3952169028078666,0.47514797096765654,0.7074423749806932
disparate impact moyen,2.2416012959147666,inf,1.2172032313566912,1.7283331965822033
