word,count
work,4220
write,3434
news,2836
also,2710
new,2665
time,2496
journalism,2450
university,2416
editor,2040
book,1875
magazine,1857
include,1834
media,1780
report,1701
years,1635
live,1461
award,1435
york,1393
cover,1333
publish,1256
