word,count
paralegal,484
work,475
law,462
experience,367
legal,334
include,328
litigation,320
firm,316
university,302
years,243
assist,239
estate,226
also,222
document,222
degree,205
case,188
state,183
college,166
study,162
matter,159
