word,count
church,699
serve,350
years,334
pastor,319
ministry,309
university,249
also,242
god,240
work,237
seminary,235
live,226
book,221
wife,218
children,212
theological,199
write,194
christian,193
two,190
people,170
school,167
