text,count
account,1831
financial,1226
business,1222
tax,1103
work,1069
years,929
university,839
company,828
experience,811
service,773
include,738
also,695
finance,642
public,595
management,592
firm,585
serve,543
member,518
audit,513
degree,506
