text,count
chiropractic,1223
dr,685
npi,533
list,528
practice,507
years,419
health,386
patients,323
pain,303
university,291
reach,288
number,284
care,283
via,270
college,268
location,264
registry,262
blue,224
also,197
include,195
