text,count
music,4287
work,1795
include,1082
composition,1005
university,909
film,871
new,863
perform,729
also,721
study,649
sound,608
musical,600
score,561
award,558
write,550
compose,529
record,524
orchestra,522
composer,521
ensemble,438
