text,count
nutrition,2671
health,1079
university,988
work,765
food,709
medical,603
years,599
dietitian,569
experience,543
hospital,514
weight,497
eat,451
science,445
group,424
diet,416
help,414
also,411
healthy,411
degree,404
book,392
