text,count
university,59970
research,51782
work,23256
phd,22642
include,22642
interest,21096
study,17907
focus,17701
teach,16215
dr,15494
science,14087
also,13436
school,13314
health,12022
education,12016
journal,10994
publish,10738
receive,10630
program,10332
international,10326
