text,count
music,309
release,280
rap,237
album,197
record,173
also,150
make,149
one,138
new,132
work,115
first,115
rapper,113
hop,110
know,108
get,104
hip,104
single,104
group,103
name,102
feature,95
